
>---> Run starts at 2022-03-01/13:41:41
Vlen = 16384
 *** The ratio of the table size to Vlen > 256.
     You may overflow the aggregation buffer. Try increasing Vlen.

Alen (Aggregation Factor) = 512
# reps = 6
k factor (imbalance) = 4
# ranks = 32
# nodes = 1
# ranks per node = 32

Main table size = 2^25 = 33554432 words
# of updates: 134217728
Mode: 0   -> Source Completion
@Lsz,   Alg,       M,       P,      Mups,      tWall,   vlen,    nAgg,  Push,  HighW,       TStamp,          Job
@ 25, MPI-PUT, -1,    32,    631.56,       0.21,    16K,     512,      -1,       -1,   2022-03-01/13:41:41, 1488085, bash
@ 25, MPI-PUT, -1,    32,    721.28,       0.19,    16K,     512,      -1,       -1,   2022-03-01/13:41:41
@ 25, MPI-PUT, -1,    32,    745.24,       0.18,    16K,     512,      -1,       -1,   2022-03-01/13:41:41
@ 25, MPI-PUT, -1,    32,    758.27,       0.18,    16K,     512,      -1,       -1,   2022-03-01/13:41:41
@ 25, MPI-PUT, -1,    32,    741.68,       0.18,    16K,     512,      -1,       -1,   2022-03-01/13:41:41
@ 25, MPI-PUT, -1,    32,    767.03,       0.17,    16K,     512,      -1,       -1,   2022-03-01/13:41:42

[93mCORRECT![0m
Number of messages: 0

		Max       Min       Avg      L      P       V     A   P/F   Push   HighW  Reps      Alg      Mode
Summary*      767.03    721.28    746.37    25      32    16K   512    P     --     --       6    MPI-PUT    0  2022-03-01/13:41:42  [1488085, bash]
* Summary performance ignores first iteration

>---> Run starts at 2022-03-01/13:41:42
Vlen = 32768
 *** The ratio of the table size to Vlen > 256.
     You may overflow the aggregation buffer. Try increasing Vlen.

Alen (Aggregation Factor) = 512
# reps = 6
k factor (imbalance) = 4
# ranks = 32
# nodes = 1
# ranks per node = 32

Main table size = 2^25 = 33554432 words
# of updates: 134217728
Mode: 0   -> Source Completion
@Lsz,   Alg,       M,       P,      Mups,      tWall,   vlen,    nAgg,  Push,  HighW,       TStamp,          Job
@ 25, MPI-PUT, -1,    32,    510.31,       0.26,    32K,     512,      -1,       -1,   2022-03-01/13:41:43, 1488085, bash
@ 25, MPI-PUT, -1,    32,    605.46,       0.22,    32K,     512,      -1,       -1,   2022-03-01/13:41:43
@ 25, MPI-PUT, -1,    32,    626.15,       0.21,    32K,     512,      -1,       -1,   2022-03-01/13:41:43
@ 25, MPI-PUT, -1,    32,    626.96,       0.21,    32K,     512,      -1,       -1,   2022-03-01/13:41:43
@ 25, MPI-PUT, -1,    32,    639.09,       0.21,    32K,     512,      -1,       -1,   2022-03-01/13:41:44
@ 25, MPI-PUT, -1,    32,    639.92,       0.21,    32K,     512,      -1,       -1,   2022-03-01/13:41:44

[93mCORRECT![0m
Number of messages: 0

		Max       Min       Avg      L      P       V     A   P/F   Push   HighW  Reps      Alg      Mode
Summary*      639.92    605.46    627.27    25      32    32K   512    P     --     --       6    MPI-PUT    0  2022-03-01/13:41:44  [1488085, bash]
* Summary performance ignores first iteration

>---> Run starts at 2022-03-01/13:41:45
Vlen = 65536
 *** The ratio of the table size to Vlen > 256.
     You may overflow the aggregation buffer. Try increasing Vlen.

Alen (Aggregation Factor) = 512
# reps = 6
k factor (imbalance) = 4
# ranks = 32
# nodes = 1
# ranks per node = 32

Main table size = 2^25 = 33554432 words
# of updates: 134217728
Mode: 0   -> Source Completion
@Lsz,   Alg,       M,       P,      Mups,      tWall,   vlen,    nAgg,  Push,  HighW,       TStamp,          Job
@ 25, MPI-PUT, -1,    32,    608.32,       0.22,    64K,     512,      -1,       -1,   2022-03-01/13:41:45, 1488085, bash
@ 25, MPI-PUT, -1,    32,    682.62,       0.20,    64K,     512,      -1,       -1,   2022-03-01/13:41:45
@ 25, MPI-PUT, -1,    32,    699.39,       0.19,    64K,     512,      -1,       -1,   2022-03-01/13:41:45
@ 25, MPI-PUT, -1,    32,    706.32,       0.19,    64K,     512,      -1,       -1,   2022-03-01/13:41:46
@ 25, MPI-PUT, -1,    32,    706.48,       0.19,    64K,     512,      -1,       -1,   2022-03-01/13:41:46
@ 25, MPI-PUT, -1,    32,    715.20,       0.19,    64K,     512,      -1,       -1,   2022-03-01/13:41:46

[93mCORRECT![0m
Number of messages: 0

		Max       Min       Avg      L      P       V     A   P/F   Push   HighW  Reps      Alg      Mode
Summary*      715.20    682.62    701.83    25      32    64K   512    P     --     --       6    MPI-PUT    0  2022-03-01/13:41:46  [1488085, bash]
* Summary performance ignores first iteration

>---> Run starts at 2022-03-01/13:41:47
Vlen = 131072
Alen (Aggregation Factor) = 512
# reps = 6
k factor (imbalance) = 4
# ranks = 32
# nodes = 1
# ranks per node = 32

Main table size = 2^25 = 33554432 words
# of updates: 134217728
Mode: 0   -> Source Completion
@Lsz,   Alg,       M,       P,      Mups,      tWall,   vlen,    nAgg,  Push,  HighW,       TStamp,          Job
@ 25, MPI-PUT, -1,    32,    673.56,       0.20,   128K,     512,      -1,       -1,   2022-03-01/13:41:47, 1488085, bash
@ 25, MPI-PUT, -1,    32,    776.27,       0.17,   128K,     512,      -1,       -1,   2022-03-01/13:41:47
@ 25, MPI-PUT, -1,    32,    779.53,       0.17,   128K,     512,      -1,       -1,   2022-03-01/13:41:47
@ 25, MPI-PUT, -1,    32,    784.21,       0.17,   128K,     512,      -1,       -1,   2022-03-01/13:41:47
@ 25, MPI-PUT, -1,    32,    790.52,       0.17,   128K,     512,      -1,       -1,   2022-03-01/13:41:48
@ 25, MPI-PUT, -1,    32,    789.04,       0.17,   128K,     512,      -1,       -1,   2022-03-01/13:41:48

[93mCORRECT![0m
Number of messages: 0

		Max       Min       Avg      L      P       V     A   P/F   Push   HighW  Reps      Alg      Mode
Summary*      790.52    776.27    783.88    25      32   128K   512    P     --     --       6    MPI-PUT    0  2022-03-01/13:41:48  [1488085, bash]
* Summary performance ignores first iteration

>---> Run starts at 2022-03-01/13:41:49
Vlen = 262144
Alen (Aggregation Factor) = 512
# reps = 6
k factor (imbalance) = 4
# ranks = 32
# nodes = 1
# ranks per node = 32

Main table size = 2^25 = 33554432 words
# of updates: 134217728
Mode: 0   -> Source Completion
@Lsz,   Alg,       M,       P,      Mups,      tWall,   vlen,    nAgg,  Push,  HighW,       TStamp,          Job
@ 25, MPI-PUT, -1,    32,    675.70,       0.20,   256K,     512,      -1,       -1,   2022-03-01/13:41:49, 1488085, bash
@ 25, MPI-PUT, -1,    32,    822.36,       0.16,   256K,     512,      -1,       -1,   2022-03-01/13:41:49
@ 25, MPI-PUT, -1,    32,    821.91,       0.16,   256K,     512,      -1,       -1,   2022-03-01/13:41:49
@ 25, MPI-PUT, -1,    32,    824.52,       0.16,   256K,     512,      -1,       -1,   2022-03-01/13:41:49
@ 25, MPI-PUT, -1,    32,    824.54,       0.16,   256K,     512,      -1,       -1,   2022-03-01/13:41:50
@ 25, MPI-PUT, -1,    32,    823.19,       0.16,   256K,     512,      -1,       -1,   2022-03-01/13:41:50

[93mCORRECT![0m
Number of messages: 0

		Max       Min       Avg      L      P       V     A   P/F   Push   HighW  Reps      Alg      Mode
Summary*      824.54    821.91    823.30    25      32   256K   512    P     --     --       6    MPI-PUT    0  2022-03-01/13:41:50  [1488085, bash]
* Summary performance ignores first iteration

>---> Run starts at 2022-03-01/13:41:51
Vlen = 524288
Alen (Aggregation Factor) = 512
# reps = 6
k factor (imbalance) = 4
# ranks = 32
# nodes = 1
# ranks per node = 32

Main table size = 2^25 = 33554432 words
# of updates: 134217728
Mode: 0   -> Source Completion
@Lsz,   Alg,       M,       P,      Mups,      tWall,   vlen,    nAgg,  Push,  HighW,       TStamp,          Job
@ 25, MPI-PUT, -1,    32,    641.79,       0.21,   512K,     512,      -1,       -1,   2022-03-01/13:41:51, 1488085, bash
@ 25, MPI-PUT, -1,    32,    879.17,       0.15,   512K,     512,      -1,       -1,   2022-03-01/13:41:51
@ 25, MPI-PUT, -1,    32,    881.45,       0.15,   512K,     512,      -1,       -1,   2022-03-01/13:41:51
@ 25, MPI-PUT, -1,    32,    880.41,       0.15,   512K,     512,      -1,       -1,   2022-03-01/13:41:51
@ 25, MPI-PUT, -1,    32,    876.47,       0.15,   512K,     512,      -1,       -1,   2022-03-01/13:41:51
@ 25, MPI-PUT, -1,    32,    865.10,       0.16,   512K,     512,      -1,       -1,   2022-03-01/13:41:52

[93mCORRECT![0m
Number of messages: 0

		Max       Min       Avg      L      P       V     A   P/F   Push   HighW  Reps      Alg      Mode
Summary*      881.45    865.10    876.48    25      32   512K   512    P     --     --       6    MPI-PUT    0  2022-03-01/13:41:52  [1488085, bash]
* Summary performance ignores first iteration

>---> Run starts at 2022-03-01/13:41:52
Vlen = 1048576
Alen (Aggregation Factor) = 512
# reps = 6
k factor (imbalance) = 4
# ranks = 32
# nodes = 1
# ranks per node = 32

Main table size = 2^25 = 33554432 words
# of updates: 134217728
Mode: 0   -> Source Completion
@Lsz,   Alg,       M,       P,      Mups,      tWall,   vlen,    nAgg,  Push,  HighW,       TStamp,          Job
@ 25, MPI-PUT, -1,    32,    597.23,       0.22,  1024K,     512,      -1,       -1,   2022-03-01/13:41:53, 1488085, bash
@ 25, MPI-PUT, -1,    32,    895.13,       0.15,  1024K,     512,      -1,       -1,   2022-03-01/13:41:53
@ 25, MPI-PUT, -1,    32,    890.44,       0.15,  1024K,     512,      -1,       -1,   2022-03-01/13:41:53
@ 25, MPI-PUT, -1,    32,    888.38,       0.15,  1024K,     512,      -1,       -1,   2022-03-01/13:41:53
@ 25, MPI-PUT, -1,    32,    873.48,       0.15,  1024K,     512,      -1,       -1,   2022-03-01/13:41:53
@ 25, MPI-PUT, -1,    32,    881.80,       0.15,  1024K,     512,      -1,       -1,   2022-03-01/13:41:53

[93mCORRECT![0m
Number of messages: 0

		Max       Min       Avg      L      P       V     A   P/F   Push   HighW  Reps      Alg      Mode
Summary*      895.13    873.48    885.78    25      32  1024K   512    P     --     --       6    MPI-PUT    0  2022-03-01/13:41:53  [1488085, bash]
* Summary performance ignores first iteration

>---> Run starts at 2022-03-01/13:41:54
Vlen = 2097152
Alen (Aggregation Factor) = 512
# reps = 6
k factor (imbalance) = 4
# ranks = 32
# nodes = 1
# ranks per node = 32

Main table size = 2^25 = 33554432 words
# of updates: 134217728
Mode: 0   -> Source Completion
@Lsz,   Alg,       M,       P,      Mups,      tWall,   vlen,    nAgg,  Push,  HighW,       TStamp,          Job
@ 25, MPI-PUT, -1,    32,    599.56,       0.22,  2048K,     512,      -1,       -1,   2022-03-01/13:41:55, 1488085, bash
@ 25, MPI-PUT, -1,    32,    877.10,       0.15,  2048K,     512,      -1,       -1,   2022-03-01/13:41:55
@ 25, MPI-PUT, -1,    32,    875.55,       0.15,  2048K,     512,      -1,       -1,   2022-03-01/13:41:55
@ 25, MPI-PUT, -1,    32,    880.46,       0.15,  2048K,     512,      -1,       -1,   2022-03-01/13:41:55
@ 25, MPI-PUT, -1,    32,    881.47,       0.15,  2048K,     512,      -1,       -1,   2022-03-01/13:41:55
@ 25, MPI-PUT, -1,    32,    870.83,       0.15,  2048K,     512,      -1,       -1,   2022-03-01/13:41:55

[93mCORRECT![0m
Number of messages: 0

		Max       Min       Avg      L      P       V     A   P/F   Push   HighW  Reps      Alg      Mode
Summary*      881.47    870.83    877.07    25      32  2048K   512    P     --     --       6    MPI-PUT    0  2022-03-01/13:41:55  [1488085, bash]
* Summary performance ignores first iteration

>---> Run starts at 2022-03-01/13:41:56
Vlen = 4194304
Alen (Aggregation Factor) = 512
# reps = 6
k factor (imbalance) = 4
# ranks = 32
# nodes = 1
# ranks per node = 32

Main table size = 2^25 = 33554432 words
# of updates: 134217728
Mode: 0   -> Source Completion
@Lsz,   Alg,       M,       P,      Mups,      tWall,   vlen,    nAgg,  Push,  HighW,       TStamp,          Job
@ 25, MPI-PUT, -1,    32,    607.28,       0.22,  4096K,     512,      -1,       -1,   2022-03-01/13:41:56, 1488085, bash
@ 25, MPI-PUT, -1,    32,    885.49,       0.15,  4096K,     512,      -1,       -1,   2022-03-01/13:41:57
@ 25, MPI-PUT, -1,    32,    893.30,       0.15,  4096K,     512,      -1,       -1,   2022-03-01/13:41:57
@ 25, MPI-PUT, -1,    32,    875.83,       0.15,  4096K,     512,      -1,       -1,   2022-03-01/13:41:57
@ 25, MPI-PUT, -1,    32,    878.10,       0.15,  4096K,     512,      -1,       -1,   2022-03-01/13:41:57
@ 25, MPI-PUT, -1,    32,    893.40,       0.15,  4096K,     512,      -1,       -1,   2022-03-01/13:41:57

[93mCORRECT![0m
Number of messages: 0

		Max       Min       Avg      L      P       V     A   P/F   Push   HighW  Reps      Alg      Mode
Summary*      893.40    875.83    885.16    25      32  4096K   512    P     --     --       6    MPI-PUT    0  2022-03-01/13:41:57  [1488085, bash]
* Summary performance ignores first iteration
