2651, 10551
3218, 6999
3164, 7231
3689, 4821
3248, 6892
3655, 4935
3701, 4983
3882, 4256
3367, 7606
3758, 5238
3674, 5627
4004, 4146
3886, 5164
4032, 4320
3934, 4560
3935, 4179
3456, 6565
3861, 4967
3829, 5333
3967, 4151
3731, 5258
4012, 4302
4044, 4294
3947, 4304
3891, 5300
4023, 4223
4044, 4238
3978, 4187
3951, 4555
3977, 4290
3879, 4196
3909, 4191
3622, 6041
3864, 4642
3877, 4553
3787, 4217
3631, 4912
4046, 4321
4062, 4215
3893, 4187
3913, 4776
3961, 4413
3979, 4271
3990, 4202
3923, 4208
4069, 4161
4022, 4194
4036, 4228
3906, 4805
3962, 4301
3934, 4222
4014, 4125
3942, 4167
4049, 4124
4011, 4130
3912, 4156
4023, 4195
3946, 4270
3911, 4266
4036, 4164
3855, 4219
4040, 4137
4029, 4134
3815, 4179
3628, 5935
3990, 4552
3781, 4590
3991, 4484
3825, 4681
3994, 4188
4056, 4172
4055, 4138
3902, 4943
3947, 4183
4046, 4129
3952, 4389
3962, 4369
3982, 4282
3988, 4123
3936, 4145
3778, 4754
4040, 4195
4029, 4211
4022, 4419
4069, 4155
3875, 4239
4027, 4142
3988, 4265
3967, 4181
3871, 4339
3958, 4175
4016, 4345
4020, 4188
3978, 4171
4029, 4175
3922, 4265
3913, 4671
3946, 4427
3979, 4144
4002, 4290
4022, 4139
3872, 4192
4047, 4125
3953, 4152
4019, 4288
3927, 4320
3983, 4216
3996, 4198
3846, 4201
4030, 4165
4052, 4125
3972, 4280
3971, 4189
4022, 4119
3976, 4137
3995, 4268
3998, 4201
3956, 4229
3991, 4190
3973, 4161
3929, 4127
3891, 4225
4053, 4118
4038, 4154
3961, 4158
4048, 4145
3892, 4310
3961, 4239
3396, 6183
4009, 4368
3720, 5059
3932, 4325
3932, 4628
3953, 4383
3913, 4514
4014, 4298
3855, 5031
3993, 4257
3823, 4501
3940, 4213
4037, 4262
3946, 4132
4057, 4188
4034, 4118
3895, 4782
4071, 4130
3972, 4272
4057, 4128
3982, 4262
4037, 4214
4053, 4318
4028, 4140
4045, 4178
4061, 4194
4052, 4194
4048, 4137
4018, 4147
4050, 4131
3976, 4249
3943, 4162
3899, 4643
3907, 4269
3905, 4398
4047, 4276
4002, 4248
4035, 4155
4011, 4386
4004, 4179
4046, 4220
3846, 4294
3941, 4235
4007, 4146
4071, 4210
4063, 4127
4061, 4204
4084, 4102
4038, 4168
4043, 4134
4025, 4291
3953, 4217
4007, 4132
4001, 4175
3907, 4259
4011, 4278
4052, 4228
3908, 4203
4025, 4150
3797, 4259
4030, 4154
3950, 4232
3959, 4140
3813, 4432
3950, 4690
3913, 4283
3979, 4462
3806, 4759
3981, 4150
3917, 4129
4048, 4257
4069, 4181
3993, 4350
4083, 4140
3968, 4173
3958, 4371
4003, 4258
4027, 4149
4022, 4131
4071, 4175
4026, 4327
4032, 4178
3918, 4389
3970, 4269
4020, 4250
3992, 4191
4033, 4275
4019, 4196
4035, 4168
3929, 4248
4017, 4291
4067, 4137
3988, 4144
4022, 4176
4031, 4241
3901, 4314
3949, 4210
3976, 4123
4018, 4309
3979, 4279
4020, 4237
3974, 4156
4041, 4169
3924, 4303
4013, 4171
4076, 4150
3969, 4220
3984, 4158
4055, 4147
4054, 4175
4020, 4119
4001, 4172
3957, 4127
4021, 4192
4050, 4192
3984, 4143
4043, 4208
4053, 4135
3980, 4169
4042, 4127
3968, 4149
3992, 4147
3936, 4215
3985, 4185
4019, 4180
3938, 4246
4072, 4212
3985, 4156
3391, 6298
3772, 4997
4046, 4368
3903, 4348
3671, 5402
3942, 4613
4017, 4350
4003, 4348
3898, 4845
4010, 4397
4008, 4391
3930, 4395
3906, 4894
3990, 4289
3931, 4297
4024, 4152
3837, 5125
3886, 4516
3946, 4202
3943, 4157
3911, 4651
4045, 4361
4058, 4311
4076, 4139
4008, 4475
4059, 4118
4006, 4115
4080, 4163
4044, 4249
3955, 4153
4045, 4236
4057, 4248
3781, 4729
3920, 4318
4058, 4184
3996, 4160
3919, 4656
4014, 4365
4041, 4239
4013, 4139
4031, 4329
4059, 4197
4058, 4149
4038, 4158
4016, 4341
4054, 4239
4061, 4116
3954, 4154
3943, 4213
4043, 4151
4014, 4217
3984, 4279
4024, 4254
4055, 4163
3952, 4138
3994, 4195
4004, 4139
3914, 4159
3959, 4206
3967, 4140
3957, 4173
4073, 4115
4024, 4170
3941, 4178
3909, 4468
3957, 4304
4046, 4252
3879, 4259
3956, 4516
3859, 4744
4051, 4250
4050, 4136
4038, 4350
3997, 4228
3880, 4232
4003, 4269
3999, 4495
3956, 4303
4032, 4122
4048, 4246
4076, 4186
4030, 4135
3965, 4380
4064, 4127
4053, 4276
4015, 4311
4061, 4208
4025, 4117
3899, 4182
3946, 4124
4022, 4211
4075, 4124
3964, 4160
4055, 4115
4043, 4183
4005, 4141
4041, 4217
4017, 4117
4014, 4261
4036, 4317
4020, 4209
4031, 4216
3974, 4143
3945, 4211
3937, 4179
4056, 4174
4044, 4176
3963, 4180
3861, 4301
4030, 4178
4042, 4154
3876, 4260
4006, 4139
4039, 4254
4016, 4265
4069, 4111
4027, 4122
4050, 4279
3878, 4280
3903, 4200
3982, 4209
4088, 4129
3998, 4164
3939, 4131
3901, 4177
3876, 4274
3870, 4189
3952, 4152
3776, 4782
3934, 4286
3922, 4277
3994, 4160
4045, 4174
4018, 4202
3892, 4915
4028, 4434
3991, 4181
3995, 4342
4015, 4193
3932, 4142
4031, 4142
3944, 4253
4027, 4242
4041, 4177
3892, 4297
4039, 4246
4030, 4113
4057, 4248
4058, 4180
4074, 4118
4036, 4314
4046, 4180
4067, 4234
4020, 4288
4039, 4141
3998, 4175
4063, 4171
4048, 4142
4074, 4160
4042, 4125
4068, 4125
4044, 4167
3913, 4132
4060, 4140
3961, 4215
3983, 4194
3996, 4297
3995, 4321
3977, 4188
4015, 4128
3992, 4237
3963, 4171
3989, 4369
3944, 4204
4028, 4133
4021, 4144
4028, 4130
3980, 4312
3969, 4361
3976, 4170
4034, 4175
4033, 4239
4009, 4147
3939, 4192
4029, 4117
4083, 4112
3991, 4161
4064, 4139
3958, 4138
4074, 4126
3962, 4150
4064, 4228
4009, 4121
3964, 4215
4062, 4244
4028, 4135
4018, 4299
3843, 4279
4014, 4357
3973, 4256
4013, 4237
4037, 4226
4040, 4135
4008, 4270
4072, 4138
4007, 4121
3976, 4147
4036, 4196
3943, 4174
4031, 4243
3976, 4271
3903, 4142
3943, 4199
3965, 4173
3998, 4275
4038, 4128
3982, 4181
4064, 4154
4032, 4144
4061, 4124
3998, 4163
3999, 4157
3992, 4172
3843, 4192
4016, 4162
3902, 4270
4026, 4255
4039, 4154
4020, 4165
4054, 4227
4035, 4121
3943, 4168
3946, 4228
3925, 4431
3963, 4147
3933, 4174
4035, 4153
4006, 4180
3939, 4170
4073, 4128
3978, 4188
3994, 4190
4061, 4140
4040, 4120
4037, 4272
3927, 4150
4081, 4116
3809, 4225
4004, 4137
3946, 4179
4069, 4109
3922, 4166
4055, 4137
4036, 4132
4049, 4160
4065, 4114
2651, 10551
3218, 6999
3164, 7231
3689, 4821
3248, 6892
3655, 4935
3701, 4983
3882, 4256
3367, 7606
3758, 5238
3674, 5627
4004, 4146
3886, 5164
4032, 4320
3934, 4560
3935, 4179
3456, 6565
3861, 4967
3829, 5333
3967, 4151
3731, 5258
4012, 4302
4044, 4294
3947, 4304
3891, 5300
4023, 4223
4044, 4238
3978, 4187
3951, 4555
3977, 4290
3879, 4196
3909, 4191
3622, 6041
3864, 4642
3877, 4553
3787, 4217
3631, 4912
4046, 4321
4062, 4215
3893, 4187
3913, 4776
3961, 4413
3979, 4271
3990, 4202
3923, 4208
4069, 4161
4022, 4194
4036, 4228
3906, 4805
3962, 4301
3934, 4222
4014, 4125
3942, 4167
4049, 4124
4011, 4130
3912, 4156
4023, 4195
3946, 4270
3911, 4266
4036, 4164
3855, 4219
4040, 4137
4029, 4134
3815, 4179
3628, 5935
3990, 4552
3781, 4590
3991, 4484
3825, 4681
3994, 4188
4056, 4172
4055, 4138
3902, 4943
3947, 4183
4046, 4129
3952, 4389
3962, 4369
3982, 4282
3988, 4123
3936, 4145
3778, 4754
4040, 4195
4029, 4211
4022, 4419
4069, 4155
3875, 4239
4027, 4142
3988, 4265
3967, 4181
3871, 4339
3958, 4175
4016, 4345
4020, 4188
3978, 4171
4029, 4175
3922, 4265
3913, 4671
3946, 4427
3979, 4144
4002, 4290
4022, 4139
3872, 4192
4047, 4125
3953, 4152
4019, 4288
3927, 4320
3983, 4216
3996, 4198
3846, 4201
4030, 4165
4052, 4125
3972, 4280
3971, 4189
4022, 4119
3976, 4137
3995, 4268
3998, 4201
3956, 4229
3991, 4190
3973, 4161
3929, 4127
3891, 4225
4053, 4118
4038, 4154
3961, 4158
4048, 4145
3892, 4310
3961, 4239
3396, 6183
4009, 4368
3720, 5059
3932, 4325
3932, 4628
3953, 4383
3913, 4514
4014, 4298
3855, 5031
3993, 4257
3823, 4501
3940, 4213
4037, 4262
3946, 4132
4057, 4188
4034, 4118
3895, 4782
4071, 4130
3972, 4272
4057, 4128
3982, 4262
4037, 4214
4053, 4318
4028, 4140
4045, 4178
4061, 4194
4052, 4194
4048, 4137
4018, 4147
4050, 4131
3976, 4249
3943, 4162
3899, 4643
3907, 4269
3905, 4398
4047, 4276
4002, 4248
4035, 4155
4011, 4386
4004, 4179
4046, 4220
3846, 4294
3941, 4235
4007, 4146
4071, 4210
4063, 4127
4061, 4204
4084, 4102
4038, 4168
4043, 4134
4025, 4291
3953, 4217
4007, 4132
4001, 4175
3907, 4259
4011, 4278
4052, 4228
3908, 4203
4025, 4150
3797, 4259
4030, 4154
3950, 4232
3959, 4140
3813, 4432
3950, 4690
3913, 4283
3979, 4462
3806, 4759
3981, 4150
3917, 4129
4048, 4257
4069, 4181
3993, 4350
4083, 4140
3968, 4173
3958, 4371
4003, 4258
4027, 4149
4022, 4131
4071, 4175
4026, 4327
4032, 4178
3918, 4389
3970, 4269
4020, 4250
3992, 4191
4033, 4275
4019, 4196
4035, 4168
3929, 4248
4017, 4291
4067, 4137
3988, 4144
4022, 4176
4031, 4241
3901, 4314
3949, 4210
3976, 4123
4018, 4309
3979, 4279
4020, 4237
3974, 4156
4041, 4169
3924, 4303
4013, 4171
4076, 4150
3969, 4220
3984, 4158
4055, 4147
4054, 4175
4020, 4119
4001, 4172
3957, 4127
4021, 4192
4050, 4192
3984, 4143
4043, 4208
4053, 4135
3980, 4169
4042, 4127
3968, 4149
3992, 4147
3936, 4215
3985, 4185
4019, 4180
3938, 4246
4072, 4212
3985, 4156
3391, 6298
3772, 4997
4046, 4368
3903, 4348
3671, 5402
3942, 4613
4017, 4350
4003, 4348
3898, 4845
4010, 4397
4008, 4391
3930, 4395
3906, 4894
3990, 4289
3931, 4297
4024, 4152
3837, 5125
3886, 4516
3946, 4202
3943, 4157
3911, 4651
4045, 4361
4058, 4311
4076, 4139
4008, 4475
4059, 4118
4006, 4115
4080, 4163
4044, 4249
3955, 4153
4045, 4236
4057, 4248
3781, 4729
3920, 4318
4058, 4184
3996, 4160
3919, 4656
4014, 4365
4041, 4239
4013, 4139
4031, 4329
4059, 4197
4058, 4149
4038, 4158
4016, 4341
4054, 4239
4061, 4116
3954, 4154
3943, 4213
4043, 4151
4014, 4217
3984, 4279
4024, 4254
4055, 4163
3952, 4138
3994, 4195
4004, 4139
3914, 4159
3959, 4206
3967, 4140
3957, 4173
4073, 4115
4024, 4170
3941, 4178
3909, 4468
3957, 4304
4046, 4252
3879, 4259
3956, 4516
3859, 4744
4051, 4250
4050, 4136
4038, 4350
3997, 4228
3880, 4232
4003, 4269
3999, 4495
3956, 4303
4032, 4122
4048, 4246
4076, 4186
4030, 4135
3965, 4380
4064, 4127
4053, 4276
4015, 4311
4061, 4208
4025, 4117
3899, 4182
3946, 4124
4022, 4211
4075, 4124
3964, 4160
4055, 4115
4043, 4183
4005, 4141
4041, 4217
4017, 4117
4014, 4261
4036, 4317
4020, 4209
4031, 4216
3974, 4143
3945, 4211
3937, 4179
4056, 4174
4044, 4176
3963, 4180
3861, 4301
4030, 4178
4042, 4154
3876, 4260
4006, 4139
4039, 4254
4016, 4265
4069, 4111
4027, 4122
4050, 4279
3878, 4280
3903, 4200
3982, 4209
4088, 4129
3998, 4164
3939, 4131
3901, 4177
3876, 4274
3870, 4189
3952, 4152
3776, 4782
3934, 4286
3922, 4277
3994, 4160
4045, 4174
4018, 4202
3892, 4915
4028, 4434
3991, 4181
3995, 4342
4015, 4193
3932, 4142
4031, 4142
3944, 4253
4027, 4242
4041, 4177
3892, 4297
4039, 4246
4030, 4113
4057, 4248
4058, 4180
4074, 4118
4036, 4314
4046, 4180
4067, 4234
4020, 4288
4039, 4141
3998, 4175
4063, 4171
4048, 4142
4074, 4160
4042, 4125
4068, 4125
4044, 4167
3913, 4132
4060, 4140
3961, 4215
3983, 4194
3996, 4297
3995, 4321
3977, 4188
4015, 4128
3992, 4237
3963, 4171
3989, 4369
3944, 4204
4028, 4133
4021, 4144
4028, 4130
3980, 4312
3969, 4361
3976, 4170
4034, 4175
4033, 4239
4009, 4147
3939, 4192
4029, 4117
4083, 4112
3991, 4161
4064, 4139
3958, 4138
4074, 4126
3962, 4150
4064, 4228
4009, 4121
3964, 4215
4062, 4244
4028, 4135
4018, 4299
3843, 4279
4014, 4357
3973, 4256
4013, 4237
4037, 4226
4040, 4135
4008, 4270
4072, 4138
4007, 4121
3976, 4147
4036, 4196
3943, 4174
4031, 4243
3976, 4271
3903, 4142
3943, 4199
3965, 4173
3998, 4275
4038, 4128
3982, 4181
4064, 4154
4032, 4144
4061, 4124
3998, 4163
3999, 4157
3992, 4172
3843, 4192
4016, 4162
3902, 4270
4026, 4255
4039, 4154
4020, 4165
4054, 4227
4035, 4121
3943, 4168
3946, 4228
3925, 4431
3963, 4147
3933, 4174
4035, 4153
4006, 4180
3939, 4170
4073, 4128
3978, 4188
3994, 4190
4061, 4140
4040, 4120
4037, 4272
3927, 4150
4081, 4116
3809, 4225
4004, 4137
3946, 4179
4069, 4109
3922, 4166
4055, 4137
4036, 4132
4049, 4160
4065, 4114
2651, 10551
3218, 6999
3164, 7231
3689, 4821
3248, 6892
3655, 4935
3701, 4983
3882, 4256
3367, 7606
3758, 5238
3674, 5627
4004, 4146
3886, 5164
4032, 4320
3934, 4560
3935, 4179
3456, 6565
3861, 4967
3829, 5333
3967, 4151
3731, 5258
4012, 4302
4044, 4294
3947, 4304
3891, 5300
4023, 4223
4044, 4238
3978, 4187
3951, 4555
3977, 4290
3879, 4196
3909, 4191
3622, 6041
3864, 4642
3877, 4553
3787, 4217
3631, 4912
4046, 4321
4062, 4215
3893, 4187
3913, 4776
3961, 4413
3979, 4271
3990, 4202
3923, 4208
4069, 4161
4022, 4194
4036, 4228
3906, 4805
3962, 4301
3934, 4222
4014, 4125
3942, 4167
4049, 4124
4011, 4130
3912, 4156
4023, 4195
3946, 4270
3911, 4266
4036, 4164
3855, 4219
4040, 4137
4029, 4134
3815, 4179
3628, 5935
3990, 4552
3781, 4590
3991, 4484
3825, 4681
3994, 4188
4056, 4172
4055, 4138
3902, 4943
3947, 4183
4046, 4129
3952, 4389
3962, 4369
3982, 4282
3988, 4123
3936, 4145
3778, 4754
4040, 4195
4029, 4211
4022, 4419
4069, 4155
3875, 4239
4027, 4142
3988, 4265
3967, 4181
3871, 4339
3958, 4175
4016, 4345
4020, 4188
3978, 4171
4029, 4175
3922, 4265
3913, 4671
3946, 4427
3979, 4144
4002, 4290
4022, 4139
3872, 4192
4047, 4125
3953, 4152
4019, 4288
3927, 4320
3983, 4216
3996, 4198
3846, 4201
4030, 4165
4052, 4125
3972, 4280
3971, 4189
4022, 4119
3976, 4137
3995, 4268
3998, 4201
3956, 4229
3991, 4190
3973, 4161
3929, 4127
3891, 4225
4053, 4118
4038, 4154
3961, 4158
4048, 4145
3892, 4310
3961, 4239
3396, 6183
4009, 4368
3720, 5059
3932, 4325
3932, 4628
3953, 4383
3913, 4514
4014, 4298
3855, 5031
3993, 4257
3823, 4501
3940, 4213
4037, 4262
3946, 4132
4057, 4188
4034, 4118
3895, 4782
4071, 4130
3972, 4272
4057, 4128
3982, 4262
4037, 4214
4053, 4318
4028, 4140
4045, 4178
4061, 4194
4052, 4194
4048, 4137
4018, 4147
4050, 4131
3976, 4249
3943, 4162
3899, 4643
3907, 4269
3905, 4398
4047, 4276
4002, 4248
4035, 4155
4011, 4386
4004, 4179
4046, 4220
3846, 4294
3941, 4235
4007, 4146
4071, 4210
4063, 4127
4061, 4204
4084, 4102
4038, 4168
4043, 4134
4025, 4291
3953, 4217
4007, 4132
4001, 4175
3907, 4259
4011, 4278
4052, 4228
3908, 4203
4025, 4150
3797, 4259
4030, 4154
3950, 4232
3959, 4140
3813, 4432
3950, 4690
3913, 4283
3979, 4462
3806, 4759
3981, 4150
3917, 4129
4048, 4257
4069, 4181
3993, 4350
4083, 4140
3968, 4173
3958, 4371
4003, 4258
4027, 4149
4022, 4131
4071, 4175
4026, 4327
4032, 4178
3918, 4389
3970, 4269
4020, 4250
3992, 4191
4033, 4275
4019, 4196
4035, 4168
3929, 4248
4017, 4291
4067, 4137
3988, 4144
4022, 4176
4031, 4241
3901, 4314
3949, 4210
3976, 4123
4018, 4309
3979, 4279
4020, 4237
3974, 4156
4041, 4169
3924, 4303
4013, 4171
4076, 4150
3969, 4220
3984, 4158
4055, 4147
4054, 4175
4020, 4119
4001, 4172
3957, 4127
4021, 4192
4050, 4192
3984, 4143
4043, 4208
4053, 4135
3980, 4169
4042, 4127
3968, 4149
3992, 4147
3936, 4215
3985, 4185
4019, 4180
3938, 4246
4072, 4212
3985, 4156
3391, 6298
3772, 4997
4046, 4368
3903, 4348
3671, 5402
3942, 4613
4017, 4350
4003, 4348
3898, 4845
4010, 4397
4008, 4391
3930, 4395
3906, 4894
3990, 4289
3931, 4297
4024, 4152
3837, 5125
3886, 4516
3946, 4202
3943, 4157
3911, 4651
4045, 4361
4058, 4311
4076, 4139
4008, 4475
4059, 4118
4006, 4115
4080, 4163
4044, 4249
3955, 4153
4045, 4236
4057, 4248
3781, 4729
3920, 4318
4058, 4184
3996, 4160
3919, 4656
4014, 4365
4041, 4239
4013, 4139
4031, 4329
4059, 4197
4058, 4149
4038, 4158
4016, 4341
4054, 4239
4061, 4116
3954, 4154
3943, 4213
4043, 4151
4014, 4217
3984, 4279
4024, 4254
4055, 4163
3952, 4138
3994, 4195
4004, 4139
3914, 4159
3959, 4206
3967, 4140
3957, 4173
4073, 4115
4024, 4170
3941, 4178
3909, 4468
3957, 4304
4046, 4252
3879, 4259
3956, 4516
3859, 4744
4051, 4250
4050, 4136
4038, 4350
3997, 4228
3880, 4232
4003, 4269
3999, 4495
3956, 4303
4032, 4122
4048, 4246
4076, 4186
4030, 4135
3965, 4380
4064, 4127
4053, 4276
4015, 4311
4061, 4208
4025, 4117
3899, 4182
3946, 4124
4022, 4211
4075, 4124
3964, 4160
4055, 4115
4043, 4183
4005, 4141
4041, 4217
4017, 4117
4014, 4261
4036, 4317
4020, 4209
4031, 4216
3974, 4143
3945, 4211
3937, 4179
4056, 4174
4044, 4176
3963, 4180
3861, 4301
4030, 4178
4042, 4154
3876, 4260
4006, 4139
4039, 4254
4016, 4265
4069, 4111
4027, 4122
4050, 4279
3878, 4280
3903, 4200
3982, 4209
4088, 4129
3998, 4164
3939, 4131
3901, 4177
3876, 4274
3870, 4189
3952, 4152
3776, 4782
3934, 4286
3922, 4277
3994, 4160
4045, 4174
4018, 4202
3892, 4915
4028, 4434
3991, 4181
3995, 4342
4015, 4193
3932, 4142
4031, 4142
3944, 4253
4027, 4242
4041, 4177
3892, 4297
4039, 4246
4030, 4113
4057, 4248
4058, 4180
4074, 4118
4036, 4314
4046, 4180
4067, 4234
4020, 4288
4039, 4141
3998, 4175
4063, 4171
4048, 4142
4074, 4160
4042, 4125
4068, 4125
4044, 4167
3913, 4132
4060, 4140
3961, 4215
3983, 4194
3996, 4297
3995, 4321
3977, 4188
4015, 4128
3992, 4237
3963, 4171
3989, 4369
3944, 4204
4028, 4133
4021, 4144
4028, 4130
3980, 4312
3969, 4361
3976, 4170
4034, 4175
4033, 4239
4009, 4147
3939, 4192
4029, 4117
4083, 4112
3991, 4161
4064, 4139
3958, 4138
4074, 4126
3962, 4150
4064, 4228
4009, 4121
3964, 4215
4062, 4244
4028, 4135
4018, 4299
3843, 4279
4014, 4357
3973, 4256
4013, 4237
4037, 4226
4040, 4135
4008, 4270
4072, 4138
4007, 4121
3976, 4147
4036, 4196
3943, 4174
4031, 4243
3976, 4271
3903, 4142
3943, 4199
3965, 4173
3998, 4275
4038, 4128
3982, 4181
4064, 4154
4032, 4144
4061, 4124
3998, 4163
3999, 4157
3992, 4172
3843, 4192
4016, 4162
3902, 4270
4026, 4255
4039, 4154
4020, 4165
4054, 4227
4035, 4121
3943, 4168
3946, 4228
3925, 4431
3963, 4147
3933, 4174
4035, 4153
4006, 4180
3939, 4170
4073, 4128
3978, 4188
3994, 4190
4061, 4140
4040, 4120
4037, 4272
3927, 4150
4081, 4116
3809, 4225
4004, 4137
3946, 4179
4069, 4109
3922, 4166
4055, 4137
4036, 4132
4049, 4160
4065, 4114
2651, 10551
3218, 6999
3164, 7231
3689, 4821
3248, 6892
3655, 4935
3701, 4983
3882, 4256
3367, 7606
3758, 5238
3674, 5627
4004, 4146
3886, 5164
4032, 4320
3934, 4560
3935, 4179
3456, 6565
3861, 4967
3829, 5333
3967, 4151
3731, 5258
4012, 4302
4044, 4294
3947, 4304
3891, 5300
4023, 4223
4044, 4238
3978, 4187
3951, 4555
3977, 4290
3879, 4196
3909, 4191
3622, 6041
3864, 4642
3877, 4553
3787, 4217
3631, 4912
4046, 4321
4062, 4215
3893, 4187
3913, 4776
3961, 4413
3979, 4271
3990, 4202
3923, 4208
4069, 4161
4022, 4194
4036, 4228
3906, 4805
3962, 4301
3934, 4222
4014, 4125
3942, 4167
4049, 4124
4011, 4130
3912, 4156
4023, 4195
3946, 4270
3911, 4266
4036, 4164
3855, 4219
4040, 4137
4029, 4134
3815, 4179
3628, 5935
3990, 4552
3781, 4590
3991, 4484
3825, 4681
3994, 4188
4056, 4172
4055, 4138
3902, 4943
3947, 4183
4046, 4129
3952, 4389
3962, 4369
3982, 4282
3988, 4123
3936, 4145
3778, 4754
4040, 4195
4029, 4211
4022, 4419
4069, 4155
3875, 4239
4027, 4142
3988, 4265
3967, 4181
3871, 4339
3958, 4175
4016, 4345
4020, 4188
3978, 4171
4029, 4175
3922, 4265
3913, 4671
3946, 4427
3979, 4144
4002, 4290
4022, 4139
3872, 4192
4047, 4125
3953, 4152
4019, 4288
3927, 4320
3983, 4216
3996, 4198
3846, 4201
4030, 4165
4052, 4125
3972, 4280
3971, 4189
4022, 4119
3976, 4137
3995, 4268
3998, 4201
3956, 4229
3991, 4190
3973, 4161
3929, 4127
3891, 4225
4053, 4118
4038, 4154
3961, 4158
4048, 4145
3892, 4310
3961, 4239
3396, 6183
4009, 4368
3720, 5059
3932, 4325
3932, 4628
3953, 4383
3913, 4514
4014, 4298
3855, 5031
3993, 4257
3823, 4501
3940, 4213
4037, 4262
3946, 4132
4057, 4188
4034, 4118
3895, 4782
4071, 4130
3972, 4272
4057, 4128
3982, 4262
4037, 4214
4053, 4318
4028, 4140
4045, 4178
4061, 4194
4052, 4194
4048, 4137
4018, 4147
4050, 4131
3976, 4249
3943, 4162
3899, 4643
3907, 4269
3905, 4398
4047, 4276
4002, 4248
4035, 4155
4011, 4386
4004, 4179
4046, 4220
3846, 4294
3941, 4235
4007, 4146
4071, 4210
4063, 4127
4061, 4204
4084, 4102
4038, 4168
4043, 4134
4025, 4291
3953, 4217
4007, 4132
4001, 4175
3907, 4259
4011, 4278
4052, 4228
3908, 4203
4025, 4150
3797, 4259
4030, 4154
3950, 4232
3959, 4140
3813, 4432
3950, 4690
3913, 4283
3979, 4462
3806, 4759
3981, 4150
3917, 4129
4048, 4257
4069, 4181
3993, 4350
4083, 4140
3968, 4173
3958, 4371
4003, 4258
4027, 4149
4022, 4131
4071, 4175
4026, 4327
4032, 4178
3918, 4389
3970, 4269
4020, 4250
3992, 4191
4033, 4275
4019, 4196
4035, 4168
3929, 4248
4017, 4291
4067, 4137
3988, 4144
4022, 4176
4031, 4241
3901, 4314
3949, 4210
3976, 4123
4018, 4309
3979, 4279
4020, 4237
3974, 4156
4041, 4169
3924, 4303
4013, 4171
4076, 4150
3969, 4220
3984, 4158
4055, 4147
4054, 4175
4020, 4119
4001, 4172
3957, 4127
4021, 4192
4050, 4192
3984, 4143
4043, 4208
4053, 4135
3980, 4169
4042, 4127
3968, 4149
3992, 4147
3936, 4215
3985, 4185
4019, 4180
3938, 4246
4072, 4212
3985, 4156
3391, 6298
3772, 4997
4046, 4368
3903, 4348
3671, 5402
3942, 4613
4017, 4350
4003, 4348
3898, 4845
4010, 4397
4008, 4391
3930, 4395
3906, 4894
3990, 4289
3931, 4297
4024, 4152
3837, 5125
3886, 4516
3946, 4202
3943, 4157
3911, 4651
4045, 4361
4058, 4311
4076, 4139
4008, 4475
4059, 4118
4006, 4115
4080, 4163
4044, 4249
3955, 4153
4045, 4236
4057, 4248
3781, 4729
3920, 4318
4058, 4184
3996, 4160
3919, 4656
4014, 4365
4041, 4239
4013, 4139
4031, 4329
4059, 4197
4058, 4149
4038, 4158
4016, 4341
4054, 4239
4061, 4116
3954, 4154
3943, 4213
4043, 4151
4014, 4217
3984, 4279
4024, 4254
4055, 4163
3952, 4138
3994, 4195
4004, 4139
3914, 4159
3959, 4206
3967, 4140
3957, 4173
4073, 4115
4024, 4170
3941, 4178
3909, 4468
3957, 4304
4046, 4252
3879, 4259
3956, 4516
3859, 4744
4051, 4250
4050, 4136
4038, 4350
3997, 4228
3880, 4232
4003, 4269
3999, 4495
3956, 4303
4032, 4122
4048, 4246
4076, 4186
4030, 4135
3965, 4380
4064, 4127
4053, 4276
4015, 4311
4061, 4208
4025, 4117
3899, 4182
3946, 4124
4022, 4211
4075, 4124
3964, 4160
4055, 4115
4043, 4183
4005, 4141
4041, 4217
4017, 4117
4014, 4261
4036, 4317
4020, 4209
4031, 4216
3974, 4143
3945, 4211
3937, 4179
4056, 4174
4044, 4176
3963, 4180
3861, 4301
4030, 4178
4042, 4154
3876, 4260
4006, 4139
4039, 4254
4016, 4265
4069, 4111
4027, 4122
4050, 4279
3878, 4280
3903, 4200
3982, 4209
4088, 4129
3998, 4164
3939, 4131
3901, 4177
3876, 4274
3870, 4189
3952, 4152
3776, 4782
3934, 4286
3922, 4277
3994, 4160
4045, 4174
4018, 4202
3892, 4915
4028, 4434
3991, 4181
3995, 4342
4015, 4193
3932, 4142
4031, 4142
3944, 4253
4027, 4242
4041, 4177
3892, 4297
4039, 4246
4030, 4113
4057, 4248
4058, 4180
4074, 4118
4036, 4314
4046, 4180
4067, 4234
4020, 4288
4039, 4141
3998, 4175
4063, 4171
4048, 4142
4074, 4160
4042, 4125
4068, 4125
4044, 4167
3913, 4132
4060, 4140
3961, 4215
3983, 4194
3996, 4297
3995, 4321
3977, 4188
4015, 4128
3992, 4237
3963, 4171
3989, 4369
3944, 4204
4028, 4133
4021, 4144
4028, 4130
3980, 4312
3969, 4361
3976, 4170
4034, 4175
4033, 4239
4009, 4147
3939, 4192
4029, 4117
4083, 4112
3991, 4161
4064, 4139
3958, 4138
4074, 4126
3962, 4150
4064, 4228
4009, 4121
3964, 4215
4062, 4244
4028, 4135
4018, 4299
3843, 4279
4014, 4357
3973, 4256
4013, 4237
4037, 4226
4040, 4135
4008, 4270
4072, 4138
4007, 4121
3976, 4147
4036, 4196
3943, 4174
4031, 4243
3976, 4271
3903, 4142
3943, 4199
3965, 4173
3998, 4275
4038, 4128
3982, 4181
4064, 4154
4032, 4144
4061, 4124
3998, 4163
3999, 4157
3992, 4172
3843, 4192
4016, 4162
3902, 4270
4026, 4255
4039, 4154
4020, 4165
4054, 4227
4035, 4121
3943, 4168
3946, 4228
3925, 4431
3963, 4147
3933, 4174
4035, 4153
4006, 4180
3939, 4170
4073, 4128
3978, 4188
3994, 4190
4061, 4140
4040, 4120
4037, 4272
3927, 4150
4081, 4116
3809, 4225
4004, 4137
3946, 4179
4069, 4109
3922, 4166
4055, 4137
4036, 4132
4049, 4160
4065, 4114
