l, Mups, Time(s)
14, 408.92, 0.0025
15, 572.06, 0.0025
16, 690.79, 0.01
17, 775.21, 0.0125
18, 812.32, 0.0225
19, 876.77, 0.045
20, 927.83, 0.08
21, 946.32, 0.1525
22, 914.96, 0.3075
23, 796.27, 0.69
24, 680.51, 1.5975
25, 638.88, 3.3825
26, 622.35, 6.9175
27, 612.26, 14.045
28, 611.77, 28.0975
29, 604.58, 56.8425
30, 608.98, 112.8325
